{
  "type": "service_account",
  "project_id": "local-tempo-407113",
  "private_key_id": "f991c7c7667c7e24efb6892680e3773e5944d83b",
  "private_key": "-----BEGIN PRIVATE KEY-----\nMIIEvAIBADANBgkqhkiG9w0BAQEFAASCBKYwggSiAgEAAoIBAQCvM+ZC+yyrLFfc\nZmeAb6Lu/yjMaqFDWQXHkhA9Dy3pN8zStxSvvPmetM/kzIsy6QivsliGqHx5x/La\nLcLI/KBW3wO4h3hh4s8vreboa5udpmFmvu/4Eno81KIAEzHqfqtpFCS9QVzsAiVG\nhvmgtoOTLJMuN7edaiEiEUHewFQW7TNMTgvu0ALOvyDszYr6CqG3JTnwAtXGl12e\nW+JpLouYZZKYuue+X3eIPoftVUhuC3Lv4bAKmbM7OCZbDm7whfnEurHMMDnggoVS\n75JGVBHB/pRgeqUNL3H90FlHpq1AY/GxMd01NyEqfAQUr8XUTriezAK0bJ5vqkIY\nhLt/Ha6hAgMBAAECggEABEO/5Nz+0RrW96kxd0WgYm9pE5K74qsJ0joKtaXHMRBX\n5sAom39+1v9hORlGgSJ9gONXNs3mm8NDdM6c2W4WzA6JJWZ8xmsyLl+uCXXHF68L\nW2gl6LSwb4cge158PlA/hWMFYuryo1cJB7602FXg/YXd/kfCay1AabcgUpb9ZQJu\nNLcp28aZXWBcmTBHgAxZSjJxp3gY2S+DMe4f3bt+JMrTa196CFm27+XeQ0pbA4qY\nO3vt2KcfouaGnPlRPqsHVKWiy5+zs9CIcHkfcpYNMemGEgteDES1CNSMdQFrosCY\njabBGmgh6CJqZ6TB3Ot+e3xKkSwDrHuBsu76ZNtgvQKBgQDvBQ28ZqFQbYVS91tL\nkz+q/l+xl29+91a707FQ9flUEgUch+6sO6edzGFOLxQ9EwYyOy59NvDhqCD4IArM\njAIyJ/jaqJVau+mOyfHHfuxnCWV2/ih671hzOoqdbOrO9ET6RlUwF9pwh1q/dhr/\nD56pq7jyuJ1H8ILtchIPfA9nzQKBgQC7pjvtAloVRv3e4YbWraCVdzg3hRuIWfdv\nDNoFiZ3ymDwUTbca116zKUzZ6c3vFo9Wwjv95YRsoYwqa1QojaIR4n1TgbmM767J\nhUAU4q+is/1LgpYxE1Pq5dd7A2ToVup7VFiQM/3WllIBprMGcvKr+pzxf7+izcIU\nwAP4i6hmJQKBgApfUcVHPuDan9qF2XRiI3UsLMLsK257FUx5V0yIIBXB4m7mhzj6\nLb/vSpm1+U7dMHuljdLpO3LPdP7PhShzOvUqPuZeQnz5gp0rrk5V97RQ+BI93UvY\nbyIw/Crwuw/YEdY6jx/TKSuQ9CMy4OEIsH30ccY2tLyWd1gOhzIc1B5RAoGAJr7g\nSMPfjd0mtkqi6NjY+4OuW+hkEvdgm9Fvgw0zS9AbN6YEVMp7h0rTz3rzRpbF6ggZ\nEwe9HCEPLAMVUXpNKJw3fHKguXUUBhA5dxaHZXT8rAa+tEtlXG8w2vmMcFzh9a0o\nzD2wAArxy917wa0iZlhM56CVFSyfEmHDcCKGFvECgYAaU5cch5FTNhFGdtfawIZp\nVJ6+2DQ2lGyY+Jif6X/38LmpeMtCZzKNmIdVN5i3zn3Iw0/vIPexoAwjhuODlFeb\negW6YjlcQjKLYY7zjwaqkW9j44twDK2D3tVqxHhedIsEWdQIFbk7yBIowNo37Y6q\nQMW84Wubk5BjRh9nQjspIA==\n-----END PRIVATE KEY-----\n",
  "client_email": "arthur@local-tempo-407113.iam.gserviceaccount.com",
  "client_id": "116461537000984447191",
  "auth_uri": "https://accounts.google.com/o/oauth2/auth",
  "token_uri": "https://oauth2.googleapis.com/token",
  "auth_provider_x509_cert_url": "https://www.googleapis.com/oauth2/v1/certs",
  "client_x509_cert_url": "https://www.googleapis.com/robot/v1/metadata/x509/arthur%40local-tempo-407113.iam.gserviceaccount.com",
  "universe_domain": "googleapis.com"
}
